{
    "Agent": {
        "total": 0.018150312999750895
    },
    "Env": {
        "apply_act": 0.042170204000285594,
        "observation_computation": 0.010765266999442247,
        "powerflow_computation": 0.010210917997028446,
        "total": 0.06314638899675629
    },
    "total": 0.09068443100022705
}