{
    "Agent": {
        "total": 0.28870929200547835
    },
    "Env": {
        "apply_act": 2.9511724960275387,
        "observation_computation": 0.9270406070090758,
        "powerflow_computation": 0.8743581889984853,
        "total": 4.7525712920351
    },
    "total": 5.80378653400021
}