{
    "Agent": {
        "total": 0.17214094501650834
    },
    "Env": {
        "apply_act": 0.703585286994894,
        "observation_computation": 0.208545785001661,
        "powerflow_computation": 0.2070100319942867,
        "total": 1.1191411039908417
    },
    "total": 1.4649960960005046
}