{
    "Agent": {
        "total": 0.12509450000561628
    },
    "Env": {
        "apply_act": 0.3989298880160277,
        "observation_computation": 0.23866444500526995,
        "powerflow_computation": 0.10391443200023787,
        "total": 0.7415087650215355
    },
    "total": 0.9694932149996021
}