[
    {
        "__scores": 1100.72412109375,
        "grid_operation_cost": 1100.72412109375
    },
    {
        "__scores": 1093.8944091796875,
        "grid_operation_cost": 1093.8944091796875
    },
    {
        "__scores": 1064.8746337890625,
        "grid_operation_cost": 1064.8746337890625
    },
    {
        "__scores": 1056.101806640625,
        "grid_operation_cost": 1056.101806640625
    },
    {
        "__scores": 1042.9757080078125,
        "grid_operation_cost": 1042.9757080078125
    },
    {
        "__scores": 1054.558837890625,
        "grid_operation_cost": 1054.558837890625
    },
    {
        "__scores": 1059.1483154296875,
        "grid_operation_cost": 1059.1483154296875
    },
    {
        "__scores": 1059.390869140625,
        "grid_operation_cost": 1059.390869140625
    },
    {
        "__scores": 1006.8424682617188,
        "grid_operation_cost": 1006.8424682617188
    },
    {
        "__scores": 1002.3222045898438,
        "grid_operation_cost": 1002.3222045898438
    },
    {
        "__scores": 1033.20068359375,
        "grid_operation_cost": 1033.20068359375
    },
    {
        "__scores": 1005.6404418945312,
        "grid_operation_cost": 1005.6404418945312
    },
    {
        "__scores": 1014.6296997070312,
        "grid_operation_cost": 1014.6296997070312
    },
    {
        "__scores": 1025.4703369140625,
        "grid_operation_cost": 1025.4703369140625
    },
    {
        "__scores": 1031.3492431640625,
        "grid_operation_cost": 1031.3492431640625
    },
    {
        "__scores": 1070.66162109375,
        "grid_operation_cost": 1070.66162109375
    },
    {
        "__scores": 1078.3634033203125,
        "grid_operation_cost": 1078.3634033203125
    },
    {
        "__scores": 1111.617431640625,
        "grid_operation_cost": 1111.617431640625
    },
    {
        "__scores": 1118.9091796875,
        "grid_operation_cost": 1118.9091796875
    },
    {
        "__scores": 1125.0643310546875,
        "grid_operation_cost": 1125.0643310546875
    },
    {
        "__scores": 1138.95263671875,
        "grid_operation_cost": 1138.95263671875
    },
    {
        "__scores": 1156.48681640625,
        "grid_operation_cost": 1156.48681640625
    },
    {
        "__scores": 1169.5377197265625,
        "grid_operation_cost": 1169.5377197265625
    },
    {
        "__scores": 1167.979736328125,
        "grid_operation_cost": 1167.979736328125
    },
    {
        "__scores": 1158.6514892578125,
        "grid_operation_cost": 1158.6514892578125
    },
    {
        "__scores": 1158.43505859375,
        "grid_operation_cost": 1158.43505859375
    },
    {
        "__scores": 1151.710205078125,
        "grid_operation_cost": 1151.710205078125
    },
    {
        "__scores": 1152.0491943359375,
        "grid_operation_cost": 1152.0491943359375
    },
    {
        "__scores": 1145.301513671875,
        "grid_operation_cost": 1145.301513671875
    },
    {
        "__scores": 1134.93359375,
        "grid_operation_cost": 1134.93359375
    },
    {
        "__scores": 1132.432861328125,
        "grid_operation_cost": 1132.432861328125
    },
    {
        "__scores": 1140.8267822265625,
        "grid_operation_cost": 1140.8267822265625
    },
    {
        "__scores": 1570.9078369140625,
        "grid_operation_cost": 1570.9078369140625
    },
    {
        "__scores": 2001.942626953125,
        "grid_operation_cost": 2001.942626953125
    },
    {
        "__scores": 2393.33984375,
        "grid_operation_cost": 2393.33984375
    },
    {
        "__scores": 2425.442626953125,
        "grid_operation_cost": 2425.442626953125
    },
    {
        "__scores": 2409.6337890625,
        "grid_operation_cost": 2409.6337890625
    },
    {
        "__scores": 2425.4033203125,
        "grid_operation_cost": 2425.4033203125
    },
    {
        "__scores": 2404.598388671875,
        "grid_operation_cost": 2404.598388671875
    },
    {
        "__scores": 2238.13671875,
        "grid_operation_cost": 2238.13671875
    },
    {
        "__scores": 2184.821533203125,
        "grid_operation_cost": 2184.821533203125
    },
    {
        "__scores": 2057.09423828125,
        "grid_operation_cost": 2057.09423828125
    },
    {
        "__scores": 1993.275634765625,
        "grid_operation_cost": 1993.275634765625
    },
    {
        "__scores": 1826.50439453125,
        "grid_operation_cost": 1826.50439453125
    },
    {
        "__scores": 1629.864990234375,
        "grid_operation_cost": 1629.864990234375
    },
    {
        "__scores": 1593.7427978515625,
        "grid_operation_cost": 1593.7427978515625
    },
    {
        "__scores": 1445.115966796875,
        "grid_operation_cost": 1445.115966796875
    },
    {
        "__scores": 1399.633544921875,
        "grid_operation_cost": 1399.633544921875
    },
    {
        "__scores": 1408.77587890625,
        "grid_operation_cost": 1408.77587890625
    },
    {
        "__scores": 1377.6402587890625,
        "grid_operation_cost": 1377.6402587890625
    },
    {
        "__scores": 1416.4178466796875,
        "grid_operation_cost": 1416.4178466796875
    },
    {
        "__scores": 1444.7513427734375,
        "grid_operation_cost": 1444.7513427734375
    },
    {
        "__scores": 1427.1409912109375,
        "grid_operation_cost": 1427.1409912109375
    },
    {
        "__scores": 1540.311279296875,
        "grid_operation_cost": 1540.311279296875
    },
    {
        "__scores": 1628.10400390625,
        "grid_operation_cost": 1628.10400390625
    },
    {
        "__scores": 1775.947509765625,
        "grid_operation_cost": 1775.947509765625
    },
    {
        "__scores": 1936.839111328125,
        "grid_operation_cost": 1936.839111328125
    },
    {
        "__scores": 2133.38037109375,
        "grid_operation_cost": 2133.38037109375
    },
    {
        "__scores": 2311.334716796875,
        "grid_operation_cost": 2311.334716796875
    },
    {
        "__scores": 2511.975830078125,
        "grid_operation_cost": 2511.975830078125
    },
    {
        "__scores": 2818.059814453125,
        "grid_operation_cost": 2818.059814453125
    },
    {
        "__scores": 3083.787841796875,
        "grid_operation_cost": 3083.787841796875
    },
    {
        "__scores": 3382.6533203125,
        "grid_operation_cost": 3382.6533203125
    },
    {
        "__scores": 3775.301513671875,
        "grid_operation_cost": 3775.301513671875
    },
    {
        "__scores": 4179.79345703125,
        "grid_operation_cost": 4179.79345703125
    },
    {
        "__scores": 4616.30810546875,
        "grid_operation_cost": 4616.30810546875
    },
    {
        "__scores": 4917.66259765625,
        "grid_operation_cost": 4917.66259765625
    },
    {
        "__scores": 5395.95556640625,
        "grid_operation_cost": 5395.95556640625
    },
    {
        "__scores": 5665.45947265625,
        "grid_operation_cost": 5665.45947265625
    },
    {
        "__scores": 5993.9150390625,
        "grid_operation_cost": 5993.9150390625
    },
    {
        "__scores": 6260.8896484375,
        "grid_operation_cost": 6260.8896484375
    },
    {
        "__scores": 6418.80126953125,
        "grid_operation_cost": 6418.80126953125
    },
    {
        "__scores": 6557.63818359375,
        "grid_operation_cost": 6557.63818359375
    },
    {
        "__scores": 6536.341796875,
        "grid_operation_cost": 6536.341796875
    },
    {
        "__scores": 6523.134765625,
        "grid_operation_cost": 6523.134765625
    },
    {
        "__scores": 6367.6201171875,
        "grid_operation_cost": 6367.6201171875
    },
    {
        "__scores": 6345.4658203125,
        "grid_operation_cost": 6345.4658203125
    },
    {
        "__scores": 6184.45068359375,
        "grid_operation_cost": 6184.45068359375
    },
    {
        "__scores": 5980.068359375,
        "grid_operation_cost": 5980.068359375
    },
    {
        "__scores": 5767.1650390625,
        "grid_operation_cost": 5767.1650390625
    },
    {
        "__scores": 5573.76708984375,
        "grid_operation_cost": 5573.76708984375
    },
    {
        "__scores": 5363.62353515625,
        "grid_operation_cost": 5363.62353515625
    },
    {
        "__scores": 5188.630859375,
        "grid_operation_cost": 5188.630859375
    },
    {
        "__scores": 4925.26611328125,
        "grid_operation_cost": 4925.26611328125
    },
    {
        "__scores": 4705.58447265625,
        "grid_operation_cost": 4705.58447265625
    },
    {
        "__scores": 4786.6552734375,
        "grid_operation_cost": 4786.6552734375
    },
    {
        "__scores": 5008.4345703125,
        "grid_operation_cost": 5008.4345703125
    },
    {
        "__scores": 5061.44677734375,
        "grid_operation_cost": 5061.44677734375
    },
    {
        "__scores": 5212.1259765625,
        "grid_operation_cost": 5212.1259765625
    },
    {
        "__scores": 5462.28125,
        "grid_operation_cost": 5462.28125
    },
    {
        "__scores": 5682.56884765625,
        "grid_operation_cost": 5682.56884765625
    },
    {
        "__scores": 6064.8203125,
        "grid_operation_cost": 6064.8203125
    },
    {
        "__scores": 6587.5810546875,
        "grid_operation_cost": 6587.5810546875
    },
    {
        "__scores": 7105.1494140625,
        "grid_operation_cost": 7105.1494140625
    },
    {
        "__scores": 7634.41552734375,
        "grid_operation_cost": 7634.41552734375
    },
    {
        "__scores": 8366.177734375,
        "grid_operation_cost": 8366.177734375
    },
    {
        "__scores": 9256.80859375,
        "grid_operation_cost": 9256.80859375
    },
    {
        "__scores": 10165.025390625,
        "grid_operation_cost": 10165.025390625
    },
    {
        "__scores": 11192.3154296875,
        "grid_operation_cost": 11192.3154296875
    },
    {
        "__scores": 12286.3154296875,
        "grid_operation_cost": 12286.3154296875
    },
    {
        "__scores": 13674.4794921875,
        "grid_operation_cost": 13674.4794921875
    },
    {
        "__scores": 14912.333984375,
        "grid_operation_cost": 14912.333984375
    },
    {
        "__scores": 16237.189453125,
        "grid_operation_cost": 16237.189453125
    },
    {
        "__scores": 17252.99609375,
        "grid_operation_cost": 17252.99609375
    },
    {
        "__scores": 18177.005859375,
        "grid_operation_cost": 18177.005859375
    },
    {
        "__scores": 19143.119140625,
        "grid_operation_cost": 19143.119140625
    },
    {
        "__scores": 19529.44140625,
        "grid_operation_cost": 19529.44140625
    },
    {
        "__scores": 20014.916015625,
        "grid_operation_cost": 20014.916015625
    },
    {
        "__scores": 20202.671875,
        "grid_operation_cost": 20202.671875
    },
    {
        "__scores": 20091.703125,
        "grid_operation_cost": 20091.703125
    },
    {
        "__scores": 20168.16796875,
        "grid_operation_cost": 20168.16796875
    },
    {
        "__scores": 20159.3984375,
        "grid_operation_cost": 20159.3984375
    },
    {
        "__scores": 20139.373046875,
        "grid_operation_cost": 20139.373046875
    },
    {
        "__scores": 20019.375,
        "grid_operation_cost": 20019.375
    },
    {
        "__scores": 20163.0234375,
        "grid_operation_cost": 20163.0234375
    },
    {
        "__scores": 20501.353515625,
        "grid_operation_cost": 20501.353515625
    },
    {
        "__scores": 20786.396484375,
        "grid_operation_cost": 20786.396484375
    },
    {
        "__scores": 21166.166015625,
        "grid_operation_cost": 21166.166015625
    },
    {
        "__scores": 21643.556640625,
        "grid_operation_cost": 21643.556640625
    },
    {
        "__scores": 22223.341796875,
        "grid_operation_cost": 22223.341796875
    },
    {
        "__scores": 22727.5390625,
        "grid_operation_cost": 22727.5390625
    },
    {
        "__scores": 23455.744140625,
        "grid_operation_cost": 23455.744140625
    },
    {
        "__scores": 24154.486328125,
        "grid_operation_cost": 24154.486328125
    },
    {
        "__scores": 24826.119140625,
        "grid_operation_cost": 24826.119140625
    },
    {
        "__scores": 25536.41796875,
        "grid_operation_cost": 25536.41796875
    },
    {
        "__scores": 26398.775390625,
        "grid_operation_cost": 26398.775390625
    },
    {
        "__scores": 27144.00390625,
        "grid_operation_cost": 27144.00390625
    },
    {
        "__scores": 27708.3984375,
        "grid_operation_cost": 27708.3984375
    },
    {
        "__scores": 28298.984375,
        "grid_operation_cost": 28298.984375
    },
    {
        "__scores": 28760.921875,
        "grid_operation_cost": 28760.921875
    },
    {
        "__scores": 29053.935546875,
        "grid_operation_cost": 29053.935546875
    },
    {
        "__scores": 29188.48046875,
        "grid_operation_cost": 29188.48046875
    },
    {
        "__scores": 29241.29296875,
        "grid_operation_cost": 29241.29296875
    },
    {
        "__scores": 29270.0,
        "grid_operation_cost": 29270.0
    },
    {
        "__scores": 29144.076171875,
        "grid_operation_cost": 29144.076171875
    },
    {
        "__scores": 28874.240234375,
        "grid_operation_cost": 28874.240234375
    },
    {
        "__scores": 28749.67578125,
        "grid_operation_cost": 28749.67578125
    },
    {
        "__scores": 28643.44921875,
        "grid_operation_cost": 28643.44921875
    },
    {
        "__scores": 28516.791015625,
        "grid_operation_cost": 28516.791015625
    },
    {
        "__scores": 28354.92578125,
        "grid_operation_cost": 28354.92578125
    },
    {
        "__scores": 28174.1015625,
        "grid_operation_cost": 28174.1015625
    },
    {
        "__scores": 28091.58203125,
        "grid_operation_cost": 28091.58203125
    },
    {
        "__scores": 28070.66015625,
        "grid_operation_cost": 28070.66015625
    },
    {
        "__scores": 27733.41015625,
        "grid_operation_cost": 27733.41015625
    },
    {
        "__scores": 27713.00390625,
        "grid_operation_cost": 27713.00390625
    },
    {
        "__scores": 27471.173828125,
        "grid_operation_cost": 27471.173828125
    },
    {
        "__scores": 27413.9609375,
        "grid_operation_cost": 27413.9609375
    },
    {
        "__scores": 27321.94140625,
        "grid_operation_cost": 27321.94140625
    },
    {
        "__scores": 27237.849609375,
        "grid_operation_cost": 27237.849609375
    },
    {
        "__scores": 27028.623046875,
        "grid_operation_cost": 27028.623046875
    },
    {
        "__scores": 26903.2421875,
        "grid_operation_cost": 26903.2421875
    },
    {
        "__scores": 26708.35546875,
        "grid_operation_cost": 26708.35546875
    },
    {
        "__scores": 26689.6484375,
        "grid_operation_cost": 26689.6484375
    },
    {
        "__scores": 26558.99609375,
        "grid_operation_cost": 26558.99609375
    },
    {
        "__scores": 26205.4921875,
        "grid_operation_cost": 26205.4921875
    },
    {
        "__scores": 25924.203125,
        "grid_operation_cost": 25924.203125
    },
    {
        "__scores": 25749.73828125,
        "grid_operation_cost": 25749.73828125
    },
    {
        "__scores": 25469.0078125,
        "grid_operation_cost": 25469.0078125
    },
    {
        "__scores": 25034.662109375,
        "grid_operation_cost": 25034.662109375
    },
    {
        "__scores": 24686.806640625,
        "grid_operation_cost": 24686.806640625
    },
    {
        "__scores": 24225.033203125,
        "grid_operation_cost": 24225.033203125
    },
    {
        "__scores": 23754.15234375,
        "grid_operation_cost": 23754.15234375
    },
    {
        "__scores": 23241.296875,
        "grid_operation_cost": 23241.296875
    },
    {
        "__scores": 22676.70703125,
        "grid_operation_cost": 22676.70703125
    },
    {
        "__scores": 21982.748046875,
        "grid_operation_cost": 21982.748046875
    },
    {
        "__scores": 21244.236328125,
        "grid_operation_cost": 21244.236328125
    },
    {
        "__scores": 20543.271484375,
        "grid_operation_cost": 20543.271484375
    },
    {
        "__scores": 19657.740234375,
        "grid_operation_cost": 19657.740234375
    },
    {
        "__scores": 18790.666015625,
        "grid_operation_cost": 18790.666015625
    },
    {
        "__scores": 18061.48828125,
        "grid_operation_cost": 18061.48828125
    },
    {
        "__scores": 17092.6875,
        "grid_operation_cost": 17092.6875
    },
    {
        "__scores": 16316.2119140625,
        "grid_operation_cost": 16316.2119140625
    },
    {
        "__scores": 15425.6689453125,
        "grid_operation_cost": 15425.6689453125
    },
    {
        "__scores": 14690.849609375,
        "grid_operation_cost": 14690.849609375
    },
    {
        "__scores": 13940.2568359375,
        "grid_operation_cost": 13940.2568359375
    },
    {
        "__scores": 13160.13671875,
        "grid_operation_cost": 13160.13671875
    },
    {
        "__scores": 12519.4072265625,
        "grid_operation_cost": 12519.4072265625
    },
    {
        "__scores": 11930.701171875,
        "grid_operation_cost": 11930.701171875
    },
    {
        "__scores": 11340.541015625,
        "grid_operation_cost": 11340.541015625
    },
    {
        "__scores": 10855.673828125,
        "grid_operation_cost": 10855.673828125
    },
    {
        "__scores": 10544.052734375,
        "grid_operation_cost": 10544.052734375
    },
    {
        "__scores": 10290.3701171875,
        "grid_operation_cost": 10290.3701171875
    },
    {
        "__scores": 10181.373046875,
        "grid_operation_cost": 10181.373046875
    },
    {
        "__scores": 10143.265625,
        "grid_operation_cost": 10143.265625
    },
    {
        "__scores": 10120.36328125,
        "grid_operation_cost": 10120.36328125
    },
    {
        "__scores": 10211.3271484375,
        "grid_operation_cost": 10211.3271484375
    },
    {
        "__scores": 10354.0986328125,
        "grid_operation_cost": 10354.0986328125
    },
    {
        "__scores": 10393.873046875,
        "grid_operation_cost": 10393.873046875
    },
    {
        "__scores": 10468.755859375,
        "grid_operation_cost": 10468.755859375
    },
    {
        "__scores": 10416.29296875,
        "grid_operation_cost": 10416.29296875
    },
    {
        "__scores": 10209.17578125,
        "grid_operation_cost": 10209.17578125
    },
    {
        "__scores": 9853.7685546875,
        "grid_operation_cost": 9853.7685546875
    },
    {
        "__scores": 9566.49609375,
        "grid_operation_cost": 9566.49609375
    },
    {
        "__scores": 9169.765625,
        "grid_operation_cost": 9169.765625
    },
    {
        "__scores": 8585.6240234375,
        "grid_operation_cost": 8585.6240234375
    },
    {
        "__scores": 8105.94970703125,
        "grid_operation_cost": 8105.94970703125
    },
    {
        "__scores": 7656.25341796875,
        "grid_operation_cost": 7656.25341796875
    },
    {
        "__scores": 7114.18115234375,
        "grid_operation_cost": 7114.18115234375
    },
    {
        "__scores": 6686.00927734375,
        "grid_operation_cost": 6686.00927734375
    },
    {
        "__scores": 6162.77880859375,
        "grid_operation_cost": 6162.77880859375
    },
    {
        "__scores": 5772.95263671875,
        "grid_operation_cost": 5772.95263671875
    },
    {
        "__scores": 5307.9580078125,
        "grid_operation_cost": 5307.9580078125
    },
    {
        "__scores": 4937.5869140625,
        "grid_operation_cost": 4937.5869140625
    },
    {
        "__scores": 4714.50244140625,
        "grid_operation_cost": 4714.50244140625
    },
    {
        "__scores": 4583.16357421875,
        "grid_operation_cost": 4583.16357421875
    },
    {
        "__scores": 4241.8115234375,
        "grid_operation_cost": 4241.8115234375
    },
    {
        "__scores": 4030.218505859375,
        "grid_operation_cost": 4030.218505859375
    },
    {
        "__scores": 3860.145751953125,
        "grid_operation_cost": 3860.145751953125
    },
    {
        "__scores": 3753.015625,
        "grid_operation_cost": 3753.015625
    },
    {
        "__scores": 3739.116943359375,
        "grid_operation_cost": 3739.116943359375
    },
    {
        "__scores": 3761.802734375,
        "grid_operation_cost": 3761.802734375
    },
    {
        "__scores": 3880.740478515625,
        "grid_operation_cost": 3880.740478515625
    },
    {
        "__scores": 4063.8994140625,
        "grid_operation_cost": 4063.8994140625
    },
    {
        "__scores": 4337.38232421875,
        "grid_operation_cost": 4337.38232421875
    },
    {
        "__scores": 4743.38427734375,
        "grid_operation_cost": 4743.38427734375
    },
    {
        "__scores": 5383.263671875,
        "grid_operation_cost": 5383.263671875
    },
    {
        "__scores": 6096.177734375,
        "grid_operation_cost": 6096.177734375
    },
    {
        "__scores": 6702.26953125,
        "grid_operation_cost": 6702.26953125
    },
    {
        "__scores": 7316.95068359375,
        "grid_operation_cost": 7316.95068359375
    },
    {
        "__scores": 7810.44384765625,
        "grid_operation_cost": 7810.44384765625
    },
    {
        "__scores": 8343.0595703125,
        "grid_operation_cost": 8343.0595703125
    },
    {
        "__scores": 8699.8662109375,
        "grid_operation_cost": 8699.8662109375
    },
    {
        "__scores": 8970.2724609375,
        "grid_operation_cost": 8970.2724609375
    },
    {
        "__scores": 9019.2109375,
        "grid_operation_cost": 9019.2109375
    },
    {
        "__scores": 8830.4921875,
        "grid_operation_cost": 8830.4921875
    },
    {
        "__scores": 8428.48828125,
        "grid_operation_cost": 8428.48828125
    },
    {
        "__scores": 7950.40576171875,
        "grid_operation_cost": 7950.40576171875
    },
    {
        "__scores": 7319.91064453125,
        "grid_operation_cost": 7319.91064453125
    },
    {
        "__scores": 6733.404296875,
        "grid_operation_cost": 6733.404296875
    },
    {
        "__scores": 6132.55810546875,
        "grid_operation_cost": 6132.55810546875
    },
    {
        "__scores": 5562.841796875,
        "grid_operation_cost": 5562.841796875
    },
    {
        "__scores": 4997.58544921875,
        "grid_operation_cost": 4997.58544921875
    },
    {
        "__scores": 4569.748046875,
        "grid_operation_cost": 4569.748046875
    },
    {
        "__scores": 4261.75341796875,
        "grid_operation_cost": 4261.75341796875
    },
    {
        "__scores": 4075.23388671875,
        "grid_operation_cost": 4075.23388671875
    },
    {
        "__scores": 4119.98583984375,
        "grid_operation_cost": 4119.98583984375
    },
    {
        "__scores": 4251.55908203125,
        "grid_operation_cost": 4251.55908203125
    },
    {
        "__scores": 4460.40380859375,
        "grid_operation_cost": 4460.40380859375
    },
    {
        "__scores": 4775.4443359375,
        "grid_operation_cost": 4775.4443359375
    },
    {
        "__scores": 4932.08544921875,
        "grid_operation_cost": 4932.08544921875
    },
    {
        "__scores": 5270.861328125,
        "grid_operation_cost": 5270.861328125
    },
    {
        "__scores": 5871.12841796875,
        "grid_operation_cost": 5871.12841796875
    },
    {
        "__scores": 6260.720703125,
        "grid_operation_cost": 6260.720703125
    },
    {
        "__scores": 6656.67724609375,
        "grid_operation_cost": 6656.67724609375
    },
    {
        "__scores": 6957.15478515625,
        "grid_operation_cost": 6957.15478515625
    },
    {
        "__scores": 7314.400390625,
        "grid_operation_cost": 7314.400390625
    },
    {
        "__scores": 7403.09619140625,
        "grid_operation_cost": 7403.09619140625
    },
    {
        "__scores": 7313.49267578125,
        "grid_operation_cost": 7313.49267578125
    },
    {
        "__scores": 7188.11865234375,
        "grid_operation_cost": 7188.11865234375
    },
    {
        "__scores": 6886.53759765625,
        "grid_operation_cost": 6886.53759765625
    },
    {
        "__scores": 6318.41943359375,
        "grid_operation_cost": 6318.41943359375
    },
    {
        "__scores": 5752.162109375,
        "grid_operation_cost": 5752.162109375
    },
    {
        "__scores": 5154.107421875,
        "grid_operation_cost": 5154.107421875
    },
    {
        "__scores": 4885.89599609375,
        "grid_operation_cost": 4885.89599609375
    },
    {
        "__scores": 4513.14013671875,
        "grid_operation_cost": 4513.14013671875
    },
    {
        "__scores": 4055.6630859375,
        "grid_operation_cost": 4055.6630859375
    },
    {
        "__scores": 3750.9111328125,
        "grid_operation_cost": 3750.9111328125
    },
    {
        "__scores": 3555.021484375,
        "grid_operation_cost": 3555.021484375
    },
    {
        "__scores": 3415.905029296875,
        "grid_operation_cost": 3415.905029296875
    },
    {
        "__scores": 3443.622802734375,
        "grid_operation_cost": 3443.622802734375
    },
    {
        "__scores": 3479.576171875,
        "grid_operation_cost": 3479.576171875
    },
    {
        "__scores": 3605.2607421875,
        "grid_operation_cost": 3605.2607421875
    },
    {
        "__scores": 3808.297119140625,
        "grid_operation_cost": 3808.297119140625
    },
    {
        "__scores": 4077.097412109375,
        "grid_operation_cost": 4077.097412109375
    },
    {
        "__scores": 4436.3525390625,
        "grid_operation_cost": 4436.3525390625
    },
    {
        "__scores": 4792.126953125,
        "grid_operation_cost": 4792.126953125
    },
    {
        "__scores": 5279.017578125,
        "grid_operation_cost": 5279.017578125
    },
    {
        "__scores": 5797.3212890625,
        "grid_operation_cost": 5797.3212890625
    },
    {
        "__scores": 6517.7392578125,
        "grid_operation_cost": 6517.7392578125
    },
    {
        "__scores": 7135.80078125,
        "grid_operation_cost": 7135.80078125
    },
    {
        "__scores": 7734.9228515625,
        "grid_operation_cost": 7734.9228515625
    },
    {
        "__scores": 8095.54345703125,
        "grid_operation_cost": 8095.54345703125
    },
    {
        "__scores": 8438.3466796875,
        "grid_operation_cost": 8438.3466796875
    },
    {
        "__scores": 1.0,
        "grid_operation_cost": 1.0
    }
]