{
    "Agent": {
        "total": 0.3070716239835747
    },
    "Env": {
        "apply_act": 3.0466452680238945,
        "observation_computation": 0.9605274720079251,
        "powerflow_computation": 0.922053730971129,
        "total": 4.9292264710029485
    },
    "total": 6.035980765999739
}