[
    {
        "__scores": 1077.915771484375,
        "grid_operation_cost": 1077.915771484375
    },
    {
        "__scores": 1087.6435546875,
        "grid_operation_cost": 1087.6435546875
    },
    {
        "__scores": 1124.599609375,
        "grid_operation_cost": 1124.599609375
    },
    {
        "__scores": 1077.6285400390625,
        "grid_operation_cost": 1077.6285400390625
    },
    {
        "__scores": 1110.1448974609375,
        "grid_operation_cost": 1110.1448974609375
    },
    {
        "__scores": 1118.0972900390625,
        "grid_operation_cost": 1118.0972900390625
    },
    {
        "__scores": 1095.0517578125,
        "grid_operation_cost": 1095.0517578125
    },
    {
        "__scores": 1097.8544921875,
        "grid_operation_cost": 1097.8544921875
    },
    {
        "__scores": 1101.83349609375,
        "grid_operation_cost": 1101.83349609375
    },
    {
        "__scores": 1101.038818359375,
        "grid_operation_cost": 1101.038818359375
    },
    {
        "__scores": 1077.113037109375,
        "grid_operation_cost": 1077.113037109375
    },
    {
        "__scores": 1043.3236083984375,
        "grid_operation_cost": 1043.3236083984375
    },
    {
        "__scores": 1017.8596801757812,
        "grid_operation_cost": 1017.8596801757812
    },
    {
        "__scores": 992.2249145507812,
        "grid_operation_cost": 992.2249145507812
    },
    {
        "__scores": 982.8654174804688,
        "grid_operation_cost": 982.8654174804688
    },
    {
        "__scores": 983.2442016601562,
        "grid_operation_cost": 983.2442016601562
    },
    {
        "__scores": 976.6190795898438,
        "grid_operation_cost": 976.6190795898438
    },
    {
        "__scores": 982.4210815429688,
        "grid_operation_cost": 982.4210815429688
    },
    {
        "__scores": 982.4068603515625,
        "grid_operation_cost": 982.4068603515625
    },
    {
        "__scores": 960.9562377929688,
        "grid_operation_cost": 960.9562377929688
    },
    {
        "__scores": 938.6995239257812,
        "grid_operation_cost": 938.6995239257812
    },
    {
        "__scores": 931.27685546875,
        "grid_operation_cost": 931.27685546875
    },
    {
        "__scores": 914.8619995117188,
        "grid_operation_cost": 914.8619995117188
    },
    {
        "__scores": 905.8870239257812,
        "grid_operation_cost": 905.8870239257812
    },
    {
        "__scores": 884.6272583007812,
        "grid_operation_cost": 884.6272583007812
    },
    {
        "__scores": 867.9475708007812,
        "grid_operation_cost": 867.9475708007812
    },
    {
        "__scores": 847.6363525390625,
        "grid_operation_cost": 847.6363525390625
    },
    {
        "__scores": 816.2479858398438,
        "grid_operation_cost": 816.2479858398438
    },
    {
        "__scores": 804.8689575195312,
        "grid_operation_cost": 804.8689575195312
    },
    {
        "__scores": 775.3776245117188,
        "grid_operation_cost": 775.3776245117188
    },
    {
        "__scores": 753.7675170898438,
        "grid_operation_cost": 753.7675170898438
    },
    {
        "__scores": 745.4788818359375,
        "grid_operation_cost": 745.4788818359375
    },
    {
        "__scores": 714.4722900390625,
        "grid_operation_cost": 714.4722900390625
    },
    {
        "__scores": 711.3391723632812,
        "grid_operation_cost": 711.3391723632812
    },
    {
        "__scores": 693.9359130859375,
        "grid_operation_cost": 693.9359130859375
    },
    {
        "__scores": 683.1807250976562,
        "grid_operation_cost": 683.1807250976562
    },
    {
        "__scores": 681.3121948242188,
        "grid_operation_cost": 681.3121948242188
    },
    {
        "__scores": 694.4401245117188,
        "grid_operation_cost": 694.4401245117188
    },
    {
        "__scores": 712.9255981445312,
        "grid_operation_cost": 712.9255981445312
    },
    {
        "__scores": 736.4840087890625,
        "grid_operation_cost": 736.4840087890625
    },
    {
        "__scores": 756.6956176757812,
        "grid_operation_cost": 756.6956176757812
    },
    {
        "__scores": 790.8182983398438,
        "grid_operation_cost": 790.8182983398438
    },
    {
        "__scores": 818.9567260742188,
        "grid_operation_cost": 818.9567260742188
    },
    {
        "__scores": 848.9180297851562,
        "grid_operation_cost": 848.9180297851562
    },
    {
        "__scores": 874.7322387695312,
        "grid_operation_cost": 874.7322387695312
    },
    {
        "__scores": 897.8206176757812,
        "grid_operation_cost": 897.8206176757812
    },
    {
        "__scores": 923.3329467773438,
        "grid_operation_cost": 923.3329467773438
    },
    {
        "__scores": 932.0344848632812,
        "grid_operation_cost": 932.0344848632812
    },
    {
        "__scores": 935.65185546875,
        "grid_operation_cost": 935.65185546875
    },
    {
        "__scores": 922.7633056640625,
        "grid_operation_cost": 922.7633056640625
    },
    {
        "__scores": 919.8152465820312,
        "grid_operation_cost": 919.8152465820312
    },
    {
        "__scores": 931.0745849609375,
        "grid_operation_cost": 931.0745849609375
    },
    {
        "__scores": 920.27099609375,
        "grid_operation_cost": 920.27099609375
    },
    {
        "__scores": 912.9280395507812,
        "grid_operation_cost": 912.9280395507812
    },
    {
        "__scores": 891.5031127929688,
        "grid_operation_cost": 891.5031127929688
    },
    {
        "__scores": 888.6690063476562,
        "grid_operation_cost": 888.6690063476562
    },
    {
        "__scores": 880.4602661132812,
        "grid_operation_cost": 880.4602661132812
    },
    {
        "__scores": 879.9361572265625,
        "grid_operation_cost": 879.9361572265625
    },
    {
        "__scores": 877.6716918945312,
        "grid_operation_cost": 877.6716918945312
    },
    {
        "__scores": 899.8799438476562,
        "grid_operation_cost": 899.8799438476562
    },
    {
        "__scores": 905.2604370117188,
        "grid_operation_cost": 905.2604370117188
    },
    {
        "__scores": 926.6740112304688,
        "grid_operation_cost": 926.6740112304688
    },
    {
        "__scores": 947.13623046875,
        "grid_operation_cost": 947.13623046875
    },
    {
        "__scores": 972.1529541015625,
        "grid_operation_cost": 972.1529541015625
    },
    {
        "__scores": 987.7274780273438,
        "grid_operation_cost": 987.7274780273438
    },
    {
        "__scores": 1014.2395629882812,
        "grid_operation_cost": 1014.2395629882812
    },
    {
        "__scores": 1030.1473388671875,
        "grid_operation_cost": 1030.1473388671875
    },
    {
        "__scores": 1069.6932373046875,
        "grid_operation_cost": 1069.6932373046875
    },
    {
        "__scores": 1105.1888427734375,
        "grid_operation_cost": 1105.1888427734375
    },
    {
        "__scores": 1099.927978515625,
        "grid_operation_cost": 1099.927978515625
    },
    {
        "__scores": 1124.6285400390625,
        "grid_operation_cost": 1124.6285400390625
    },
    {
        "__scores": 1113.3492431640625,
        "grid_operation_cost": 1113.3492431640625
    },
    {
        "__scores": 1140.1119384765625,
        "grid_operation_cost": 1140.1119384765625
    },
    {
        "__scores": 1136.773681640625,
        "grid_operation_cost": 1136.773681640625
    },
    {
        "__scores": 1151.2174072265625,
        "grid_operation_cost": 1151.2174072265625
    },
    {
        "__scores": 1145.318603515625,
        "grid_operation_cost": 1145.318603515625
    },
    {
        "__scores": 1154.6724853515625,
        "grid_operation_cost": 1154.6724853515625
    },
    {
        "__scores": 1124.4832763671875,
        "grid_operation_cost": 1124.4832763671875
    },
    {
        "__scores": 1130.399169921875,
        "grid_operation_cost": 1130.399169921875
    },
    {
        "__scores": 1096.09130859375,
        "grid_operation_cost": 1096.09130859375
    },
    {
        "__scores": 1075.3072509765625,
        "grid_operation_cost": 1075.3072509765625
    },
    {
        "__scores": 1033.47412109375,
        "grid_operation_cost": 1033.47412109375
    },
    {
        "__scores": 1043.9189453125,
        "grid_operation_cost": 1043.9189453125
    },
    {
        "__scores": 1030.0845947265625,
        "grid_operation_cost": 1030.0845947265625
    },
    {
        "__scores": 1027.2305908203125,
        "grid_operation_cost": 1027.2305908203125
    },
    {
        "__scores": 1047.4820556640625,
        "grid_operation_cost": 1047.4820556640625
    },
    {
        "__scores": 1070.8980712890625,
        "grid_operation_cost": 1070.8980712890625
    },
    {
        "__scores": 1087.3099365234375,
        "grid_operation_cost": 1087.3099365234375
    },
    {
        "__scores": 1103.662109375,
        "grid_operation_cost": 1103.662109375
    },
    {
        "__scores": 1131.6610107421875,
        "grid_operation_cost": 1131.6610107421875
    },
    {
        "__scores": 1134.85107421875,
        "grid_operation_cost": 1134.85107421875
    },
    {
        "__scores": 1177.054443359375,
        "grid_operation_cost": 1177.054443359375
    },
    {
        "__scores": 1192.3526611328125,
        "grid_operation_cost": 1192.3526611328125
    },
    {
        "__scores": 1191.3359375,
        "grid_operation_cost": 1191.3359375
    },
    {
        "__scores": 1221.300048828125,
        "grid_operation_cost": 1221.300048828125
    },
    {
        "__scores": 1266.4599609375,
        "grid_operation_cost": 1266.4599609375
    },
    {
        "__scores": 1297.8824462890625,
        "grid_operation_cost": 1297.8824462890625
    },
    {
        "__scores": 2087.7607421875,
        "grid_operation_cost": 2087.7607421875
    },
    {
        "__scores": 2878.307861328125,
        "grid_operation_cost": 2878.307861328125
    },
    {
        "__scores": 3581.6064453125,
        "grid_operation_cost": 3581.6064453125
    },
    {
        "__scores": 4455.94970703125,
        "grid_operation_cost": 4455.94970703125
    },
    {
        "__scores": 5233.79833984375,
        "grid_operation_cost": 5233.79833984375
    },
    {
        "__scores": 6007.62646484375,
        "grid_operation_cost": 6007.62646484375
    },
    {
        "__scores": 6605.6875,
        "grid_operation_cost": 6605.6875
    },
    {
        "__scores": 7399.54736328125,
        "grid_operation_cost": 7399.54736328125
    },
    {
        "__scores": 7974.07470703125,
        "grid_operation_cost": 7974.07470703125
    },
    {
        "__scores": 8581.4150390625,
        "grid_operation_cost": 8581.4150390625
    },
    {
        "__scores": 9170.3876953125,
        "grid_operation_cost": 9170.3876953125
    },
    {
        "__scores": 9745.150390625,
        "grid_operation_cost": 9745.150390625
    },
    {
        "__scores": 10369.33984375,
        "grid_operation_cost": 10369.33984375
    },
    {
        "__scores": 10925.37890625,
        "grid_operation_cost": 10925.37890625
    },
    {
        "__scores": 11597.2568359375,
        "grid_operation_cost": 11597.2568359375
    },
    {
        "__scores": 11899.302734375,
        "grid_operation_cost": 11899.302734375
    },
    {
        "__scores": 12615.80078125,
        "grid_operation_cost": 12615.80078125
    },
    {
        "__scores": 13127.8212890625,
        "grid_operation_cost": 13127.8212890625
    },
    {
        "__scores": 13782.14453125,
        "grid_operation_cost": 13782.14453125
    },
    {
        "__scores": 14124.43359375,
        "grid_operation_cost": 14124.43359375
    },
    {
        "__scores": 14609.5029296875,
        "grid_operation_cost": 14609.5029296875
    },
    {
        "__scores": 15048.4462890625,
        "grid_operation_cost": 15048.4462890625
    },
    {
        "__scores": 15599.474609375,
        "grid_operation_cost": 15599.474609375
    },
    {
        "__scores": 15890.64453125,
        "grid_operation_cost": 15890.64453125
    },
    {
        "__scores": 16275.3583984375,
        "grid_operation_cost": 16275.3583984375
    },
    {
        "__scores": 16711.083984375,
        "grid_operation_cost": 16711.083984375
    },
    {
        "__scores": 16878.697265625,
        "grid_operation_cost": 16878.697265625
    },
    {
        "__scores": 17095.380859375,
        "grid_operation_cost": 17095.380859375
    },
    {
        "__scores": 17307.662109375,
        "grid_operation_cost": 17307.662109375
    },
    {
        "__scores": 17429.78125,
        "grid_operation_cost": 17429.78125
    },
    {
        "__scores": 17524.419921875,
        "grid_operation_cost": 17524.419921875
    },
    {
        "__scores": 17321.447265625,
        "grid_operation_cost": 17321.447265625
    },
    {
        "__scores": 17161.9765625,
        "grid_operation_cost": 17161.9765625
    },
    {
        "__scores": 16830.125,
        "grid_operation_cost": 16830.125
    },
    {
        "__scores": 16667.419921875,
        "grid_operation_cost": 16667.419921875
    },
    {
        "__scores": 16448.263671875,
        "grid_operation_cost": 16448.263671875
    },
    {
        "__scores": 16075.7353515625,
        "grid_operation_cost": 16075.7353515625
    },
    {
        "__scores": 15896.7666015625,
        "grid_operation_cost": 15896.7666015625
    },
    {
        "__scores": 15472.05078125,
        "grid_operation_cost": 15472.05078125
    },
    {
        "__scores": 15321.455078125,
        "grid_operation_cost": 15321.455078125
    },
    {
        "__scores": 15004.541015625,
        "grid_operation_cost": 15004.541015625
    },
    {
        "__scores": 14893.3017578125,
        "grid_operation_cost": 14893.3017578125
    },
    {
        "__scores": 14759.3369140625,
        "grid_operation_cost": 14759.3369140625
    },
    {
        "__scores": 14740.6318359375,
        "grid_operation_cost": 14740.6318359375
    },
    {
        "__scores": 14739.681640625,
        "grid_operation_cost": 14739.681640625
    },
    {
        "__scores": 14949.607421875,
        "grid_operation_cost": 14949.607421875
    },
    {
        "__scores": 14890.7783203125,
        "grid_operation_cost": 14890.7783203125
    },
    {
        "__scores": 15097.2763671875,
        "grid_operation_cost": 15097.2763671875
    },
    {
        "__scores": 15264.3603515625,
        "grid_operation_cost": 15264.3603515625
    },
    {
        "__scores": 15403.5048828125,
        "grid_operation_cost": 15403.5048828125
    },
    {
        "__scores": 15820.126953125,
        "grid_operation_cost": 15820.126953125
    },
    {
        "__scores": 15946.8916015625,
        "grid_operation_cost": 15946.8916015625
    },
    {
        "__scores": 16070.837890625,
        "grid_operation_cost": 16070.837890625
    },
    {
        "__scores": 16268.7236328125,
        "grid_operation_cost": 16268.7236328125
    },
    {
        "__scores": 16534.876953125,
        "grid_operation_cost": 16534.876953125
    },
    {
        "__scores": 16431.70703125,
        "grid_operation_cost": 16431.70703125
    },
    {
        "__scores": 16514.4375,
        "grid_operation_cost": 16514.4375
    },
    {
        "__scores": 16519.822265625,
        "grid_operation_cost": 16519.822265625
    },
    {
        "__scores": 16316.3662109375,
        "grid_operation_cost": 16316.3662109375
    },
    {
        "__scores": 16115.5595703125,
        "grid_operation_cost": 16115.5595703125
    },
    {
        "__scores": 15804.169921875,
        "grid_operation_cost": 15804.169921875
    },
    {
        "__scores": 15474.47265625,
        "grid_operation_cost": 15474.47265625
    },
    {
        "__scores": 15212.1015625,
        "grid_operation_cost": 15212.1015625
    },
    {
        "__scores": 14917.0068359375,
        "grid_operation_cost": 14917.0068359375
    },
    {
        "__scores": 14606.2822265625,
        "grid_operation_cost": 14606.2822265625
    },
    {
        "__scores": 14494.84765625,
        "grid_operation_cost": 14494.84765625
    },
    {
        "__scores": 14123.8505859375,
        "grid_operation_cost": 14123.8505859375
    },
    {
        "__scores": 13912.71484375,
        "grid_operation_cost": 13912.71484375
    },
    {
        "__scores": 13627.455078125,
        "grid_operation_cost": 13627.455078125
    },
    {
        "__scores": 13581.2646484375,
        "grid_operation_cost": 13581.2646484375
    },
    {
        "__scores": 13289.9169921875,
        "grid_operation_cost": 13289.9169921875
    },
    {
        "__scores": 13199.9697265625,
        "grid_operation_cost": 13199.9697265625
    },
    {
        "__scores": 13228.623046875,
        "grid_operation_cost": 13228.623046875
    },
    {
        "__scores": 12859.84375,
        "grid_operation_cost": 12859.84375
    },
    {
        "__scores": 12768.9267578125,
        "grid_operation_cost": 12768.9267578125
    },
    {
        "__scores": 12439.1064453125,
        "grid_operation_cost": 12439.1064453125
    },
    {
        "__scores": 12163.4365234375,
        "grid_operation_cost": 12163.4365234375
    },
    {
        "__scores": 11831.1298828125,
        "grid_operation_cost": 11831.1298828125
    },
    {
        "__scores": 11424.83984375,
        "grid_operation_cost": 11424.83984375
    },
    {
        "__scores": 10901.60546875,
        "grid_operation_cost": 10901.60546875
    },
    {
        "__scores": 10366.4130859375,
        "grid_operation_cost": 10366.4130859375
    },
    {
        "__scores": 9627.0380859375,
        "grid_operation_cost": 9627.0380859375
    },
    {
        "__scores": 8847.078125,
        "grid_operation_cost": 8847.078125
    },
    {
        "__scores": 8155.2900390625,
        "grid_operation_cost": 8155.2900390625
    },
    {
        "__scores": 7312.8896484375,
        "grid_operation_cost": 7312.8896484375
    },
    {
        "__scores": 6654.42333984375,
        "grid_operation_cost": 6654.42333984375
    },
    {
        "__scores": 5886.1025390625,
        "grid_operation_cost": 5886.1025390625
    },
    {
        "__scores": 5382.8828125,
        "grid_operation_cost": 5382.8828125
    },
    {
        "__scores": 4834.8916015625,
        "grid_operation_cost": 4834.8916015625
    },
    {
        "__scores": 4376.22900390625,
        "grid_operation_cost": 4376.22900390625
    },
    {
        "__scores": 3965.3173828125,
        "grid_operation_cost": 3965.3173828125
    },
    {
        "__scores": 3562.81201171875,
        "grid_operation_cost": 3562.81201171875
    },
    {
        "__scores": 3151.356201171875,
        "grid_operation_cost": 3151.356201171875
    },
    {
        "__scores": 2784.44482421875,
        "grid_operation_cost": 2784.44482421875
    },
    {
        "__scores": 2490.078857421875,
        "grid_operation_cost": 2490.078857421875
    },
    {
        "__scores": 2306.44580078125,
        "grid_operation_cost": 2306.44580078125
    },
    {
        "__scores": 2236.95703125,
        "grid_operation_cost": 2236.95703125
    },
    {
        "__scores": 2271.343505859375,
        "grid_operation_cost": 2271.343505859375
    },
    {
        "__scores": 2445.681884765625,
        "grid_operation_cost": 2445.681884765625
    },
    {
        "__scores": 2579.883056640625,
        "grid_operation_cost": 2579.883056640625
    },
    {
        "__scores": 2767.641845703125,
        "grid_operation_cost": 2767.641845703125
    },
    {
        "__scores": 2938.57373046875,
        "grid_operation_cost": 2938.57373046875
    },
    {
        "__scores": 3133.016357421875,
        "grid_operation_cost": 3133.016357421875
    },
    {
        "__scores": 3335.764404296875,
        "grid_operation_cost": 3335.764404296875
    },
    {
        "__scores": 3541.14599609375,
        "grid_operation_cost": 3541.14599609375
    },
    {
        "__scores": 3780.626953125,
        "grid_operation_cost": 3780.626953125
    },
    {
        "__scores": 4018.158935546875,
        "grid_operation_cost": 4018.158935546875
    },
    {
        "__scores": 4289.75927734375,
        "grid_operation_cost": 4289.75927734375
    },
    {
        "__scores": 4619.40966796875,
        "grid_operation_cost": 4619.40966796875
    },
    {
        "__scores": 4946.90771484375,
        "grid_operation_cost": 4946.90771484375
    },
    {
        "__scores": 5285.53369140625,
        "grid_operation_cost": 5285.53369140625
    },
    {
        "__scores": 5444.9921875,
        "grid_operation_cost": 5444.9921875
    },
    {
        "__scores": 5749.75927734375,
        "grid_operation_cost": 5749.75927734375
    },
    {
        "__scores": 5926.9033203125,
        "grid_operation_cost": 5926.9033203125
    },
    {
        "__scores": 6116.55029296875,
        "grid_operation_cost": 6116.55029296875
    },
    {
        "__scores": 6215.69775390625,
        "grid_operation_cost": 6215.69775390625
    },
    {
        "__scores": 6369.97607421875,
        "grid_operation_cost": 6369.97607421875
    },
    {
        "__scores": 6796.58349609375,
        "grid_operation_cost": 6796.58349609375
    },
    {
        "__scores": 6881.45166015625,
        "grid_operation_cost": 6881.45166015625
    },
    {
        "__scores": 6806.57275390625,
        "grid_operation_cost": 6806.57275390625
    },
    {
        "__scores": 6662.79541015625,
        "grid_operation_cost": 6662.79541015625
    },
    {
        "__scores": 6551.529296875,
        "grid_operation_cost": 6551.529296875
    },
    {
        "__scores": 6279.46484375,
        "grid_operation_cost": 6279.46484375
    },
    {
        "__scores": 6022.5478515625,
        "grid_operation_cost": 6022.5478515625
    },
    {
        "__scores": 5809.234375,
        "grid_operation_cost": 5809.234375
    },
    {
        "__scores": 5459.771484375,
        "grid_operation_cost": 5459.771484375
    },
    {
        "__scores": 5193.12939453125,
        "grid_operation_cost": 5193.12939453125
    },
    {
        "__scores": 4826.72900390625,
        "grid_operation_cost": 4826.72900390625
    },
    {
        "__scores": 4487.73779296875,
        "grid_operation_cost": 4487.73779296875
    },
    {
        "__scores": 4139.15185546875,
        "grid_operation_cost": 4139.15185546875
    },
    {
        "__scores": 3854.98193359375,
        "grid_operation_cost": 3854.98193359375
    },
    {
        "__scores": 3620.530029296875,
        "grid_operation_cost": 3620.530029296875
    },
    {
        "__scores": 3345.912841796875,
        "grid_operation_cost": 3345.912841796875
    },
    {
        "__scores": 3153.04931640625,
        "grid_operation_cost": 3153.04931640625
    },
    {
        "__scores": 3024.4384765625,
        "grid_operation_cost": 3024.4384765625
    },
    {
        "__scores": 2867.4931640625,
        "grid_operation_cost": 2867.4931640625
    },
    {
        "__scores": 2828.076171875,
        "grid_operation_cost": 2828.076171875
    },
    {
        "__scores": 2812.443115234375,
        "grid_operation_cost": 2812.443115234375
    },
    {
        "__scores": 2901.322998046875,
        "grid_operation_cost": 2901.322998046875
    },
    {
        "__scores": 3027.345703125,
        "grid_operation_cost": 3027.345703125
    },
    {
        "__scores": 3201.328369140625,
        "grid_operation_cost": 3201.328369140625
    },
    {
        "__scores": 3483.846923828125,
        "grid_operation_cost": 3483.846923828125
    },
    {
        "__scores": 3774.38427734375,
        "grid_operation_cost": 3774.38427734375
    },
    {
        "__scores": 4152.44189453125,
        "grid_operation_cost": 4152.44189453125
    },
    {
        "__scores": 4518.14599609375,
        "grid_operation_cost": 4518.14599609375
    },
    {
        "__scores": 4942.95068359375,
        "grid_operation_cost": 4942.95068359375
    },
    {
        "__scores": 5357.89794921875,
        "grid_operation_cost": 5357.89794921875
    },
    {
        "__scores": 5831.443359375,
        "grid_operation_cost": 5831.443359375
    },
    {
        "__scores": 6151.7470703125,
        "grid_operation_cost": 6151.7470703125
    },
    {
        "__scores": 6481.61474609375,
        "grid_operation_cost": 6481.61474609375
    },
    {
        "__scores": 6604.72509765625,
        "grid_operation_cost": 6604.72509765625
    },
    {
        "__scores": 6742.03857421875,
        "grid_operation_cost": 6742.03857421875
    },
    {
        "__scores": 6723.09375,
        "grid_operation_cost": 6723.09375
    },
    {
        "__scores": 6806.759765625,
        "grid_operation_cost": 6806.759765625
    },
    {
        "__scores": 6686.1513671875,
        "grid_operation_cost": 6686.1513671875
    },
    {
        "__scores": 6626.841796875,
        "grid_operation_cost": 6626.841796875
    },
    {
        "__scores": 6446.166015625,
        "grid_operation_cost": 6446.166015625
    },
    {
        "__scores": 6285.501953125,
        "grid_operation_cost": 6285.501953125
    },
    {
        "__scores": 6115.04833984375,
        "grid_operation_cost": 6115.04833984375
    },
    {
        "__scores": 5971.916015625,
        "grid_operation_cost": 5971.916015625
    },
    {
        "__scores": 5982.2734375,
        "grid_operation_cost": 5982.2734375
    },
    {
        "__scores": 5917.6005859375,
        "grid_operation_cost": 5917.6005859375
    },
    {
        "__scores": 5951.361328125,
        "grid_operation_cost": 5951.361328125
    },
    {
        "__scores": 6100.09521484375,
        "grid_operation_cost": 6100.09521484375
    },
    {
        "__scores": 6272.30810546875,
        "grid_operation_cost": 6272.30810546875
    },
    {
        "__scores": 6421.583984375,
        "grid_operation_cost": 6421.583984375
    },
    {
        "__scores": 6749.51025390625,
        "grid_operation_cost": 6749.51025390625
    },
    {
        "__scores": 6832.220703125,
        "grid_operation_cost": 6832.220703125
    },
    {
        "__scores": 7099.5263671875,
        "grid_operation_cost": 7099.5263671875
    },
    {
        "__scores": 7311.29638671875,
        "grid_operation_cost": 7311.29638671875
    },
    {
        "__scores": 7499.38427734375,
        "grid_operation_cost": 7499.38427734375
    },
    {
        "__scores": 7832.9443359375,
        "grid_operation_cost": 7832.9443359375
    },
    {
        "__scores": 7981.259765625,
        "grid_operation_cost": 7981.259765625
    },
    {
        "__scores": 8079.84326171875,
        "grid_operation_cost": 8079.84326171875
    },
    {
        "__scores": 8021.78955078125,
        "grid_operation_cost": 8021.78955078125
    },
    {
        "__scores": 8015.349609375,
        "grid_operation_cost": 8015.349609375
    },
    {
        "__scores": 7900.3759765625,
        "grid_operation_cost": 7900.3759765625
    },
    {
        "__scores": 7717.53369140625,
        "grid_operation_cost": 7717.53369140625
    },
    {
        "__scores": 7514.4208984375,
        "grid_operation_cost": 7514.4208984375
    },
    {
        "__scores": 7339.5234375,
        "grid_operation_cost": 7339.5234375
    },
    {
        "__scores": 7213.7138671875,
        "grid_operation_cost": 7213.7138671875
    },
    {
        "__scores": 6919.3271484375,
        "grid_operation_cost": 6919.3271484375
    },
    {
        "__scores": 6723.67919921875,
        "grid_operation_cost": 6723.67919921875
    },
    {
        "__scores": 6557.10986328125,
        "grid_operation_cost": 6557.10986328125
    },
    {
        "__scores": 6413.51416015625,
        "grid_operation_cost": 6413.51416015625
    },
    {
        "__scores": 6350.83349609375,
        "grid_operation_cost": 6350.83349609375
    },
    {
        "__scores": 6225.65869140625,
        "grid_operation_cost": 6225.65869140625
    },
    {
        "__scores": 6243.60595703125,
        "grid_operation_cost": 6243.60595703125
    },
    {
        "__scores": 6208.1669921875,
        "grid_operation_cost": 6208.1669921875
    },
    {
        "__scores": 6200.75,
        "grid_operation_cost": 6200.75
    },
    {
        "__scores": 6178.5244140625,
        "grid_operation_cost": 6178.5244140625
    },
    {
        "__scores": 6204.89697265625,
        "grid_operation_cost": 6204.89697265625
    },
    {
        "__scores": 6332.4560546875,
        "grid_operation_cost": 6332.4560546875
    },
    {
        "__scores": 6355.95458984375,
        "grid_operation_cost": 6355.95458984375
    },
    {
        "__scores": 6426.19677734375,
        "grid_operation_cost": 6426.19677734375
    },
    {
        "__scores": 6514.8271484375,
        "grid_operation_cost": 6514.8271484375
    },
    {
        "__scores": 6573.005859375,
        "grid_operation_cost": 6573.005859375
    },
    {
        "__scores": 6690.83349609375,
        "grid_operation_cost": 6690.83349609375
    },
    {
        "__scores": 6565.4794921875,
        "grid_operation_cost": 6565.4794921875
    },
    {
        "__scores": 6687.2607421875,
        "grid_operation_cost": 6687.2607421875
    },
    {
        "__scores": 6847.34912109375,
        "grid_operation_cost": 6847.34912109375
    },
    {
        "__scores": 6977.5830078125,
        "grid_operation_cost": 6977.5830078125
    },
    {
        "__scores": 7173.86865234375,
        "grid_operation_cost": 7173.86865234375
    },
    {
        "__scores": 7305.33203125,
        "grid_operation_cost": 7305.33203125
    },
    {
        "__scores": 7547.1318359375,
        "grid_operation_cost": 7547.1318359375
    },
    {
        "__scores": 7727.19970703125,
        "grid_operation_cost": 7727.19970703125
    },
    {
        "__scores": 7919.60498046875,
        "grid_operation_cost": 7919.60498046875
    },
    {
        "__scores": 8052.53076171875,
        "grid_operation_cost": 8052.53076171875
    },
    {
        "__scores": 8182.23193359375,
        "grid_operation_cost": 8182.23193359375
    },
    {
        "__scores": 8273.0263671875,
        "grid_operation_cost": 8273.0263671875
    },
    {
        "__scores": 8227.6904296875,
        "grid_operation_cost": 8227.6904296875
    },
    {
        "__scores": 8170.5791015625,
        "grid_operation_cost": 8170.5791015625
    },
    {
        "__scores": 8054.19921875,
        "grid_operation_cost": 8054.19921875
    },
    {
        "__scores": 7791.54443359375,
        "grid_operation_cost": 7791.54443359375
    },
    {
        "__scores": 7618.20166015625,
        "grid_operation_cost": 7618.20166015625
    },
    {
        "__scores": 7369.2451171875,
        "grid_operation_cost": 7369.2451171875
    },
    {
        "__scores": 7060.16943359375,
        "grid_operation_cost": 7060.16943359375
    },
    {
        "__scores": 6807.47998046875,
        "grid_operation_cost": 6807.47998046875
    },
    {
        "__scores": 6527.62646484375,
        "grid_operation_cost": 6527.62646484375
    },
    {
        "__scores": 6275.416015625,
        "grid_operation_cost": 6275.416015625
    },
    {
        "__scores": 5971.1162109375,
        "grid_operation_cost": 5971.1162109375
    },
    {
        "__scores": 5686.9482421875,
        "grid_operation_cost": 5686.9482421875
    },
    {
        "__scores": 5407.2060546875,
        "grid_operation_cost": 5407.2060546875
    },
    {
        "__scores": 5124.8330078125,
        "grid_operation_cost": 5124.8330078125
    },
    {
        "__scores": 5159.515625,
        "grid_operation_cost": 5159.515625
    },
    {
        "__scores": 4736.353515625,
        "grid_operation_cost": 4736.353515625
    },
    {
        "__scores": 4590.3349609375,
        "grid_operation_cost": 4590.3349609375
    },
    {
        "__scores": 4460.5888671875,
        "grid_operation_cost": 4460.5888671875
    },
    {
        "__scores": 4391.92822265625,
        "grid_operation_cost": 4391.92822265625
    },
    {
        "__scores": 4370.70751953125,
        "grid_operation_cost": 4370.70751953125
    },
    {
        "__scores": 4347.546875,
        "grid_operation_cost": 4347.546875
    },
    {
        "__scores": 4386.4404296875,
        "grid_operation_cost": 4386.4404296875
    },
    {
        "__scores": 4463.5361328125,
        "grid_operation_cost": 4463.5361328125
    },
    {
        "__scores": 4602.27099609375,
        "grid_operation_cost": 4602.27099609375
    },
    {
        "__scores": 4809.3408203125,
        "grid_operation_cost": 4809.3408203125
    },
    {
        "__scores": 5062.849609375,
        "grid_operation_cost": 5062.849609375
    },
    {
        "__scores": 5314.2197265625,
        "grid_operation_cost": 5314.2197265625
    },
    {
        "__scores": 5701.44287109375,
        "grid_operation_cost": 5701.44287109375
    },
    {
        "__scores": 6017.060546875,
        "grid_operation_cost": 6017.060546875
    },
    {
        "__scores": 6427.65673828125,
        "grid_operation_cost": 6427.65673828125
    },
    {
        "__scores": 6785.26416015625,
        "grid_operation_cost": 6785.26416015625
    },
    {
        "__scores": 7105.06494140625,
        "grid_operation_cost": 7105.06494140625
    },
    {
        "__scores": 7477.373046875,
        "grid_operation_cost": 7477.373046875
    },
    {
        "__scores": 7713.38818359375,
        "grid_operation_cost": 7713.38818359375
    },
    {
        "__scores": 7810.99462890625,
        "grid_operation_cost": 7810.99462890625
    },
    {
        "__scores": 7708.11865234375,
        "grid_operation_cost": 7708.11865234375
    },
    {
        "__scores": 7483.3486328125,
        "grid_operation_cost": 7483.3486328125
    },
    {
        "__scores": 7215.19970703125,
        "grid_operation_cost": 7215.19970703125
    },
    {
        "__scores": 6867.69580078125,
        "grid_operation_cost": 6867.69580078125
    },
    {
        "__scores": 6495.16943359375,
        "grid_operation_cost": 6495.16943359375
    },
    {
        "__scores": 6073.40087890625,
        "grid_operation_cost": 6073.40087890625
    },
    {
        "__scores": 5720.93359375,
        "grid_operation_cost": 5720.93359375
    },
    {
        "__scores": 5385.380859375,
        "grid_operation_cost": 5385.380859375
    },
    {
        "__scores": 5156.5986328125,
        "grid_operation_cost": 5156.5986328125
    },
    {
        "__scores": 4994.01171875,
        "grid_operation_cost": 4994.01171875
    },
    {
        "__scores": 4835.95361328125,
        "grid_operation_cost": 4835.95361328125
    },
    {
        "__scores": 4699.96923828125,
        "grid_operation_cost": 4699.96923828125
    },
    {
        "__scores": 4632.15673828125,
        "grid_operation_cost": 4632.15673828125
    },
    {
        "__scores": 4669.7275390625,
        "grid_operation_cost": 4669.7275390625
    },
    {
        "__scores": 4647.80810546875,
        "grid_operation_cost": 4647.80810546875
    },
    {
        "__scores": 4754.56640625,
        "grid_operation_cost": 4754.56640625
    },
    {
        "__scores": 4913.75830078125,
        "grid_operation_cost": 4913.75830078125
    },
    {
        "__scores": 5209.7587890625,
        "grid_operation_cost": 5209.7587890625
    },
    {
        "__scores": 5619.93896484375,
        "grid_operation_cost": 5619.93896484375
    },
    {
        "__scores": 6078.09716796875,
        "grid_operation_cost": 6078.09716796875
    },
    {
        "__scores": 6715.50439453125,
        "grid_operation_cost": 6715.50439453125
    },
    {
        "__scores": 7436.3798828125,
        "grid_operation_cost": 7436.3798828125
    },
    {
        "__scores": 8177.22802734375,
        "grid_operation_cost": 8177.22802734375
    },
    {
        "__scores": 9056.31640625,
        "grid_operation_cost": 9056.31640625
    },
    {
        "__scores": 10033.8896484375,
        "grid_operation_cost": 10033.8896484375
    },
    {
        "__scores": 11103.748046875,
        "grid_operation_cost": 11103.748046875
    },
    {
        "__scores": 12243.537109375,
        "grid_operation_cost": 12243.537109375
    },
    {
        "__scores": 13365.4609375,
        "grid_operation_cost": 13365.4609375
    },
    {
        "__scores": 14546.9619140625,
        "grid_operation_cost": 14546.9619140625
    },
    {
        "__scores": 15688.4404296875,
        "grid_operation_cost": 15688.4404296875
    },
    {
        "__scores": 16875.701171875,
        "grid_operation_cost": 16875.701171875
    },
    {
        "__scores": 17894.771484375,
        "grid_operation_cost": 17894.771484375
    },
    {
        "__scores": 18888.02734375,
        "grid_operation_cost": 18888.02734375
    },
    {
        "__scores": 19772.572265625,
        "grid_operation_cost": 19772.572265625
    },
    {
        "__scores": 20489.94921875,
        "grid_operation_cost": 20489.94921875
    },
    {
        "__scores": 21052.693359375,
        "grid_operation_cost": 21052.693359375
    },
    {
        "__scores": 21476.826171875,
        "grid_operation_cost": 21476.826171875
    },
    {
        "__scores": 21735.677734375,
        "grid_operation_cost": 21735.677734375
    },
    {
        "__scores": 21956.833984375,
        "grid_operation_cost": 21956.833984375
    },
    {
        "__scores": 22134.796875,
        "grid_operation_cost": 22134.796875
    },
    {
        "__scores": 22188.28125,
        "grid_operation_cost": 22188.28125
    },
    {
        "__scores": 22374.69140625,
        "grid_operation_cost": 22374.69140625
    },
    {
        "__scores": 22463.169921875,
        "grid_operation_cost": 22463.169921875
    },
    {
        "__scores": 22795.447265625,
        "grid_operation_cost": 22795.447265625
    },
    {
        "__scores": 23067.87109375,
        "grid_operation_cost": 23067.87109375
    },
    {
        "__scores": 23446.755859375,
        "grid_operation_cost": 23446.755859375
    },
    {
        "__scores": 23963.744140625,
        "grid_operation_cost": 23963.744140625
    },
    {
        "__scores": 24296.09375,
        "grid_operation_cost": 24296.09375
    },
    {
        "__scores": 24886.57421875,
        "grid_operation_cost": 24886.57421875
    },
    {
        "__scores": 25548.376953125,
        "grid_operation_cost": 25548.376953125
    },
    {
        "__scores": 26056.484375,
        "grid_operation_cost": 26056.484375
    },
    {
        "__scores": 26772.76953125,
        "grid_operation_cost": 26772.76953125
    },
    {
        "__scores": 27429.830078125,
        "grid_operation_cost": 27429.830078125
    },
    {
        "__scores": 27931.28515625,
        "grid_operation_cost": 27931.28515625
    },
    {
        "__scores": 28692.0390625,
        "grid_operation_cost": 28692.0390625
    },
    {
        "__scores": 29399.857421875,
        "grid_operation_cost": 29399.857421875
    },
    {
        "__scores": 1.0,
        "grid_operation_cost": 1.0
    }
]